{
  "xml": {
    "appId": "str1234",
    "appid": "str1234",
    "mchId": "str1234",
    "subAppid": "str1234",
    "subMchId": "str1234",
    "deviceInfo": "str1234",
    "receipt": "str1234",
    "nonceStr": "str1234",
    "sign": "str1234",
    "signType": "str1234",
    "body": "str1234",
    "detail": "str1234",
    "attach": "str1234",
    "outTradeNo": "str1234",
    "feeType": "str1234",
    "totalFee": 123,
    "spbillCreateIp": "str1234",
    "timeStart": "str1234",
    "timeExpire": "str1234",
    "goodsTag": "str1234",
    "sbjNotifyUrl": "str1234",
    "wechatNotifyUrl": "str1234",
    "tradeType": "str1234",
    "productId": "str1234",
    "limitPay": "str1234",
    "openid": "str1234",
    "subOpenid": "str1234"
  }
}